{
    /*
        1. In VS-code go to
        2. File _-> Preference -> user-snippets
        3. select plsql.json
        4. COPY this content to this file and save

		// Place your snippets for PLSQL here. Each snippet is defined under a snippet name and has a prefix, body and
		// description. The prefix is what is used to trigger the snippet and the body will be expanded and inserted. Possible variables are:
		// $1, $2 for tab stops, $0 for the final cursor position, and ${1:label}, ${2:another} for placeholders. Placeholders with the
		// same ids are connected.
		// Example:
		"Print to console": {
			"prefix": "log",
			"body": [
				"console.log('$1');",
				"$2"
			],
			"description": "Log output to console"
		}
	*/
	"Package template": {
		"prefix": "createpck",
		"body": [
			"create or replace package body $TM_FILENAME$1",
			"as ",
			"    gc_scope_prefix constant varchar2(31) := lower($$$plsql_unit) || '.';",
			"",
			"",
			"end;",
			"/"
		],
		"description": "Sets up the initial template for a package"
	},
	"Procedure": {
		"prefix": "proc",
		"body": [
			"procedure ${1:procnaam}",
			"is",
			"	l_scope     logger_logs.scope%type := gc_scope_prefix || '${1:procnaam}';",
			"	l_params    logger.tab_param;",
			"begin",
			"	$0",
			"end ${1:procnaam};"
		],
		"description": "Sets up the initial template for a package procedure"
	},
	"Logger start": {
		"prefix": "logstart",
		"body": [
			"logger.log_start(null, l_scope, null, l_params);"
		],
		"description": "Logger template in begin van functie/procedure"
	},
	"Logger end": {
		"prefix": "logend",
		"body": [
			"logger.log_end(null, l_scope);"
		],
		"description": "Logger template aan het einde van functie/procedure"
	},
	"Logger log debug": {
		"prefix": "log",
		"body": [
			"logger.log('$1 = \"' || $1 || '\"', l_scope, null, l_params);$0"
		],
		"description": "Log een debug melding"
	},
	"Logger add parameter": {
		"prefix": "logpar",
		"body": [
			"logger.append_param(l_params, '$1', $1);"
		],
		"description": "Voeg een parameter toe aan de logging"
	},
	"Logger add variables": {
		"prefix": "logvar",
		"body": [
			"l_scope         logger_logs.scope%type := gc_scope_prefix || '$1';",
			"l_params        logger.tab_param;"
		],
		"description": "Voeg de variabelen toe"
	},
	"Logger log error": {
		"prefix": "logerr",
		"body": [
			"logger.log_error('$1', l_scope, null, l_params);$0"
		],
		"description": "Log een error melding"
	},
	"Logger log info": {
		"prefix": "loginf",
		"body": [
			"logger.log_info('$1', l_scope, null, l_params);$0"
		],
		"description": "Log een info melding"
	},
	"Tech Doc template": {
		"prefix": "docfunc",
		"body": [
		    "/**",
			"* Description",
			"*",
			"*",
			"* @example",
			"* ",
			"* @issue ",
			"*",
			"* @author   ",
			"* @created  $CURRENT_DATE-$CURRENT_MONTH-$CURRENT_YEAR",
			"* @param",
			"* @return",
			"*/"
		],
		"description": "Documenteer PLSQL functie / procedure"
	},
	"Exception handler": {
		"prefix": "logex",
		"body": [
		    "exception",
        	"    when others then",
            "        logger.log_exception(null, l_scope, null, l_params);",
            "        raise;"
		],
		"description": "Add exception handler"
	},
	"Override default select snippet": {
		"prefix": "select",
		"body": [
			"select  "
		],
		"description": "Override default select snippet"
	},
	"Override default insert snippet": {
		"prefix": "is",
		"body": [
			"is"
		],
		"description": "Override default insert snippet"
	}
}